<svg width="20" height="20" viewBox="0 0 20 20" version="1.1" xmlns="http://www.w3.org/2000/svg" xmlns:xlink="http://www.w3.org/1999/xlink">
<title>Union</title>
<desc>Created using Figma</desc>
<g id="Canvas" transform="translate(11651 -2582)">
<g id="Union">
<use xlink:href="#path0_fill" transform="translate(-11650.3 2582.82)" fill="#D0D8E1"/>
</g>
</g>
<defs>
<path id="path0_fill" d="M 12.9365 3.99679C 14.0391 3.93575 14.8838 2.99215 14.8232 1.88937C 14.7617 0.786338 13.8184 -0.0581444 12.7148 0.00313491C 11.4805 0.100059 9.92773 0.756553 8.93945 1.69161C 7.31738 3.31344 6.8584 5.65694 7.56055 7.68795L 0.585938 14.6626C -0.195312 15.4436 -0.195312 16.7099 0.585938 17.4909L 1.33594 18.2407C 2.11621 19.0217 3.38281 19.0217 4.16406 18.2407L 11.1387 11.2663C 13.1699 11.9687 15.5137 11.509 17.1348 9.88717C 18.0703 8.8984 18.7266 7.3464 18.8232 6.11129C 18.8848 5.00826 18.04 4.06466 16.9375 4.00362C 15.834 3.94259 14.8906 4.78707 14.8301 5.8901C 14.8271 6.45431 14.7461 6.67306 14.3066 7.0588C 13.6055 7.75997 12.4688 7.75997 11.7676 7.0588C 11.0664 6.35763 11.0664 5.22115 11.7676 4.51998C 12.1533 4.08028 12.3721 3.99947 12.9365 3.99679Z"/>
</defs>
</svg>
