<svg width="12" height="12" viewBox="0 0 12 12" version="1.1" xmlns="http://www.w3.org/2000/svg" xmlns:xlink="http://www.w3.org/1999/xlink">
<title>Vector</title>
<desc>Created using Figma</desc>
<g id="Canvas" transform="translate(11510 -2738)">
<g id="Vector">
<use xlink:href="#path0_fill" transform="translate(-11510 2738)"/>
</g>
</g>
<defs>
<path id="path0_fill" d="M 6 6C 7.6575 6 9 4.6575 9 3C 9 1.3425 7.6575 0 6 0C 4.3425 0 3 1.3425 3 3C 3 4.6575 4.3425 6 6 6ZM 6 7.5C 3.9975 7.5 0 8.505 0 10.5L 0 12L 12 12L 12 10.5C 12 8.505 8.0025 7.5 6 7.5Z"/>
</defs>
</svg>
